﻿[{ 
    "_id" : 0, 
    "nameId" : "Amakna", 
    "superAreaId" : 0, 
    "containHouses" : true, 
    "containPaddocks" : true, 
    "bounds" : {
        "x" : -47, 
        "y" : -70, 
        "width" : 63, 
        "height" : 104
    }, 
    "worldmapId" : 0, 
    "hasWorldMap" : true
},
{ 
    "_id" : 1, 
    "nameId" : "Île des Wabbits", 
    "superAreaId" : 0, 
    "containHouses" : true, 
    "containPaddocks" : true, 
    "bounds" : {
        "x" : 0, 
        "y" : -17, 
        "width" : 31, 
        "height" : 18
    }, 
    "worldmapId" : 0, 
    "hasWorldMap" : true
},
{ 
    "_id" : 2, 
    "nameId" : "Île de Moon", 
    "superAreaId" : 0, 
    "containHouses" : true, 
    "containPaddocks" : true, 
    "bounds" : {
        "x" : 0, 
        "y" : 0, 
        "width" : 39, 
        "height" : 14
    }, 
    "worldmapId" : 0, 
    "hasWorldMap" : true
},
{ 
    "_id" : 3, 
    "nameId" : "Prison", 
    "superAreaId" : 0, 
    "containHouses" : true, 
    "containPaddocks" : true, 
    "bounds" : {
        "x" : 0, 
        "y" : 0, 
        "width" : 1, 
        "height" : 1
    }, 
    "worldmapId" : 0, 
    "hasWorldMap" : true
},
{ 
    "_id" : 4, 
    "nameId" : "Tainéla", 
    "superAreaId" : 0, 
    "containHouses" : true, 
    "containPaddocks" : true, 
    "bounds" : {
        "x" : -2, 
        "y" : -34, 
        "width" : 7, 
        "height" : 35
    }, 
    "worldmapId" : 0, 
    "hasWorldMap" : true
},
{ 
    "_id" : 5, 
    "nameId" : "Baie de Sufokia", 
    "superAreaId" : 0, 
    "containHouses" : true, 
    "containPaddocks" : true, 
    "bounds" : {
        "x" : 0, 
        "y" : 0, 
        "width" : 27, 
        "height" : 36
    }, 
    "worldmapId" : 0, 
    "hasWorldMap" : true
},
{ 
    "_id" : 6, 
    "nameId" : "Forêt des Abraknydes", 
    "superAreaId" : 0, 
    "containHouses" : true, 
    "containPaddocks" : true, 
    "bounds" : {
        "x" : -17, 
        "y" : -18, 
        "width" : 18, 
        "height" : 19
    }, 
    "worldmapId" : 0, 
    "hasWorldMap" : true
},
{ 
    "_id" : 7, 
    "nameId" : "Bonta", 
    "superAreaId" : 0, 
    "containHouses" : true, 
    "containPaddocks" : true, 
    "bounds" : {
        "x" : -38, 
        "y" : -65, 
        "width" : 39, 
        "height" : 66
    }, 
    "worldmapId" : 0, 
    "hasWorldMap" : true
},
{ 
    "_id" : 8, 
    "nameId" : "Plaines de Cania", 
    "superAreaId" : 0, 
    "containHouses" : true, 
    "containPaddocks" : true, 
    "bounds" : {
        "x" : -39, 
        "y" : -62, 
        "width" : 43, 
        "height" : 63
    }, 
    "worldmapId" : 0, 
    "hasWorldMap" : true
},
{ 
    "_id" : 11, 
    "nameId" : "Brâkmar", 
    "superAreaId" : 0, 
    "containHouses" : true, 
    "containPaddocks" : true, 
    "bounds" : {
        "x" : -33, 
        "y" : 0, 
        "width" : 34, 
        "height" : 45
    }, 
    "worldmapId" : 0, 
    "hasWorldMap" : true
},
{ 
    "_id" : 12, 
    "nameId" : "Landes de Sidimote", 
    "superAreaId" : 0, 
    "containHouses" : true, 
    "containPaddocks" : true, 
    "bounds" : {
        "x" : -31, 
        "y" : 0, 
        "width" : 32, 
        "height" : 41
    }, 
    "worldmapId" : 0, 
    "hasWorldMap" : true
},
{ 
    "_id" : 13, 
    "nameId" : "Territoire des Dopeuls", 
    "superAreaId" : 0, 
    "containHouses" : true, 
    "containPaddocks" : true, 
    "bounds" : {
        "x" : -35, 
        "y" : -12, 
        "width" : 36, 
        "height" : 13
    }, 
    "worldmapId" : 0, 
    "hasWorldMap" : true
},
{ 
    "_id" : 14, 
    "nameId" : "Village des Brigandins", 
    "superAreaId" : 0, 
    "containHouses" : true, 
    "containPaddocks" : true, 
    "bounds" : {
        "x" : -19, 
        "y" : -26, 
        "width" : 20, 
        "height" : 27
    }, 
    "worldmapId" : 0, 
    "hasWorldMap" : true
},
{ 
    "_id" : 15, 
    "nameId" : "Foire du Trool", 
    "superAreaId" : 0, 
    "containHouses" : true, 
    "containPaddocks" : true, 
    "bounds" : {
        "x" : -13, 
        "y" : -41, 
        "width" : 14, 
        "height" : 42
    }, 
    "worldmapId" : 0, 
    "hasWorldMap" : true
},
{ 
    "_id" : 18, 
    "nameId" : "Astrub", 
    "superAreaId" : 0, 
    "containHouses" : true, 
    "containPaddocks" : true, 
    "bounds" : {
        "x" : -3, 
        "y" : -30, 
        "width" : 16, 
        "height" : 31
    }, 
    "worldmapId" : 0, 
    "hasWorldMap" : true
},
{ 
    "_id" : 19, 
    "nameId" : "Pandala Neutre", 
    "superAreaId" : 0, 
    "containHouses" : true, 
    "containPaddocks" : true, 
    "bounds" : {
        "x" : 0, 
        "y" : -54, 
        "width" : 35, 
        "height" : 55
    }, 
    "worldmapId" : 0, 
    "hasWorldMap" : true
},
{ 
    "_id" : 20, 
    "nameId" : "Pandala Eau", 
    "superAreaId" : 0, 
    "containHouses" : true, 
    "containPaddocks" : true, 
    "bounds" : {
        "x" : 0, 
        "y" : -29, 
        "width" : 26, 
        "height" : 30
    }, 
    "worldmapId" : 0, 
    "hasWorldMap" : true
},
{ 
    "_id" : 21, 
    "nameId" : "Pandala Terre", 
    "superAreaId" : 0, 
    "containHouses" : true, 
    "containPaddocks" : true, 
    "bounds" : {
        "x" : 0, 
        "y" : -41, 
        "width" : 32, 
        "height" : 42
    }, 
    "worldmapId" : 0, 
    "hasWorldMap" : true
},
{ 
    "_id" : 22, 
    "nameId" : "Pandala Feu", 
    "superAreaId" : 0, 
    "containHouses" : true, 
    "containPaddocks" : true, 
    "bounds" : {
        "x" : 0, 
        "y" : -52, 
        "width" : 29, 
        "height" : 53
    }, 
    "worldmapId" : 0, 
    "hasWorldMap" : true
},
{ 
    "_id" : 23, 
    "nameId" : "Pandala Air", 
    "superAreaId" : 0, 
    "containHouses" : true, 
    "containPaddocks" : true, 
    "bounds" : {
        "x" : 0, 
        "y" : -40, 
        "width" : 20, 
        "height" : 41
    }, 
    "worldmapId" : 0, 
    "hasWorldMap" : true
},
{ 
    "_id" : 24, 
    "nameId" : "Pandala Donjon", 
    "superAreaId" : 0, 
    "containHouses" : true, 
    "containPaddocks" : true, 
    "bounds" : {
        "x" : 0, 
        "y" : 0, 
        "width" : 1, 
        "height" : 1
    }, 
    "worldmapId" : 0, 
    "hasWorldMap" : true
},
{ 
    "_id" : 26, 
    "nameId" : "Labyrinthe du Dragon Cochon", 
    "superAreaId" : 0, 
    "containHouses" : true, 
    "containPaddocks" : true, 
    "bounds" : {
        "x" : 0, 
        "y" : 0, 
        "width" : 1, 
        "height" : 1
    }, 
    "worldmapId" : 0, 
    "hasWorldMap" : true
},
{ 
    "_id" : 28, 
    "nameId" : "Montagne des Koalaks", 
    "superAreaId" : 0, 
    "containHouses" : true, 
    "containPaddocks" : true, 
    "bounds" : {
        "x" : -23, 
        "y" : -13, 
        "width" : 24, 
        "height" : 34
    }, 
    "worldmapId" : 0, 
    "hasWorldMap" : true
},
{ 
    "_id" : 29, 
    "nameId" : "Donjon des Tofus", 
    "superAreaId" : 0, 
    "containHouses" : true, 
    "containPaddocks" : true, 
    "bounds" : {
        "x" : 0, 
        "y" : 0, 
        "width" : 1, 
        "height" : 1
    }, 
    "worldmapId" : 0, 
    "hasWorldMap" : true
},
{ 
    "_id" : 30, 
    "nameId" : "Île du Minotoror", 
    "superAreaId" : 0, 
    "containHouses" : true, 
    "containPaddocks" : true, 
    "bounds" : {
        "x" : -43, 
        "y" : -19, 
        "width" : 44, 
        "height" : 20
    }, 
    "worldmapId" : 0, 
    "hasWorldMap" : true
},
{ 
    "_id" : 31, 
    "nameId" : "Centre du labyrinthe du Minotoror", 
    "superAreaId" : 0, 
    "containHouses" : true, 
    "containPaddocks" : true, 
    "bounds" : {
        "x" : 0, 
        "y" : 0, 
        "width" : 1, 
        "height" : 1
    }, 
    "worldmapId" : 0, 
    "hasWorldMap" : true
},
{ 
    "_id" : 33, 
    "nameId" : "Donjon des Canidés", 
    "superAreaId" : 0, 
    "containHouses" : true, 
    "containPaddocks" : true, 
    "bounds" : {
        "x" : 0, 
        "y" : 0, 
        "width" : 1, 
        "height" : 1
    }, 
    "worldmapId" : 0, 
    "hasWorldMap" : true
},
{ 
    "_id" : 34, 
    "nameId" : "Caverne du Koulosse", 
    "superAreaId" : 0, 
    "containHouses" : true, 
    "containPaddocks" : true, 
    "bounds" : {
        "x" : -17, 
        "y" : 0, 
        "width" : 18, 
        "height" : 8
    }, 
    "worldmapId" : 0, 
    "hasWorldMap" : true
},
{ 
    "_id" : 36, 
    "nameId" : "Sanctuaire des Familiers", 
    "superAreaId" : 0, 
    "containHouses" : true, 
    "containPaddocks" : true, 
    "bounds" : {
        "x" : 0, 
        "y" : 0, 
        "width" : 1, 
        "height" : 1
    }, 
    "worldmapId" : 0, 
    "hasWorldMap" : true
},
{ 
    "_id" : 37, 
    "nameId" : "Pitons Rocheux des Craqueleurs", 
    "superAreaId" : 0, 
    "containHouses" : true, 
    "containPaddocks" : true, 
    "bounds" : {
        "x" : 0, 
        "y" : 0, 
        "width" : 1, 
        "height" : 1
    }, 
    "worldmapId" : 0, 
    "hasWorldMap" : true
},
{ 
    "_id" : 39, 
    "nameId" : "Donjon des Bworks", 
    "superAreaId" : 0, 
    "containHouses" : true, 
    "containPaddocks" : true, 
    "bounds" : {
        "x" : 0, 
        "y" : 0, 
        "width" : 1, 
        "height" : 1
    }, 
    "worldmapId" : 0, 
    "hasWorldMap" : true
},
{ 
    "_id" : "58408edba4aee13be41a3a50"
},
{ 
    "_id" : 40, 
    "nameId" : "Donjon des Scarafeuilles", 
    "superAreaId" : 0, 
    "containHouses" : true, 
    "containPaddocks" : true, 
    "bounds" : {
        "x" : 0, 
        "y" : 0, 
        "width" : 1, 
        "height" : 1
    }, 
    "worldmapId" : 0, 
    "hasWorldMap" : true
},
{ 
    "_id" : 41, 
    "nameId" : "Donjon des Champs", 
    "superAreaId" : 0, 
    "containHouses" : true, 
    "containPaddocks" : true, 
    "bounds" : {
        "x" : 0, 
        "y" : 0, 
        "width" : 1, 
        "height" : 1
    }, 
    "worldmapId" : 0, 
    "hasWorldMap" : true
},
{ 
    "_id" : 42, 
    "nameId" : "Île de Nowel", 
    "superAreaId" : 0, 
    "containHouses" : true, 
    "containPaddocks" : true, 
    "bounds" : {
        "x" : -40, 
        "y" : -93, 
        "width" : 41, 
        "height" : 94
    }, 
    "worldmapId" : 0, 
    "hasWorldMap" : true
},
{ 
    "_id" : 43, 
    "nameId" : "Donjon du Dragon Cochon", 
    "superAreaId" : 0, 
    "containHouses" : true, 
    "containPaddocks" : true, 
    "bounds" : {
        "x" : 0, 
        "y" : 0, 
        "width" : 1, 
        "height" : 1
    }, 
    "worldmapId" : 0, 
    "hasWorldMap" : true
},
{ 
    "_id" : 44, 
    "nameId" : "Donjon des Dragoeufs", 
    "superAreaId" : 0, 
    "containHouses" : true, 
    "containPaddocks" : true, 
    "bounds" : {
        "x" : 0, 
        "y" : 0, 
        "width" : 1, 
        "height" : 1
    }, 
    "worldmapId" : 0, 
    "hasWorldMap" : true
},
{ 
    "_id" : 45, 
    "nameId" : "Incarnam", 
    "superAreaId" : 3, 
    "containHouses" : true, 
    "containPaddocks" : true, 
    "bounds" : {
        "x" : -4, 
        "y" : -6, 
        "width" : 9, 
        "height" : 7
    }, 
    "worldmapId" : 0, 
    "hasWorldMap" : true
},
{ 
    "_id" : 46, 
    "nameId" : "Île d'Otomaï", 
    "superAreaId" : 0, 
    "containHouses" : true, 
    "containPaddocks" : true, 
    "bounds" : {
        "x" : -62, 
        "y" : -10, 
        "width" : 81, 
        "height" : 52
    }, 
    "worldmapId" : 0, 
    "hasWorldMap" : true
},
{ 
    "_id" : 47, 
    "nameId" : "Village des Zoths", 
    "superAreaId" : 0, 
    "containHouses" : true, 
    "containPaddocks" : true, 
    "bounds" : {
        "x" : -56, 
        "y" : 0, 
        "width" : 57, 
        "height" : 19
    }, 
    "worldmapId" : 0, 
    "hasWorldMap" : true
},
{ 
    "_id" : 48, 
    "nameId" : "Île de Frigost", 
    "superAreaId" : 0, 
    "containHouses" : true, 
    "containPaddocks" : true, 
    "bounds" : {
        "x" : -88, 
        "y" : -88, 
        "width" : 89, 
        "height" : 89
    }, 
    "worldmapId" : 0, 
    "hasWorldMap" : true
},
{ 
    "_id" : 49, 
    "nameId" : "Île de Sakaï", 
    "superAreaId" : 0, 
    "containHouses" : true, 
    "containPaddocks" : true, 
    "bounds" : {
        "x" : -55, 
        "y" : -45, 
        "width" : 56, 
        "height" : 46
    }, 
    "worldmapId" : 0, 
    "hasWorldMap" : true
},
{ 
    "_id" : 50, 
    "nameId" : "Archipel de Vulkania", 
    "superAreaId" : 0, 
    "containHouses" : true, 
    "containPaddocks" : true, 
    "bounds" : {
        "x" : -56, 
        "y" : 0, 
        "width" : 57, 
        "height" : 45
    }, 
    "worldmapId" : 0, 
    "hasWorldMap" : true
},
{ 
    "_id" : 51, 
    "nameId" : "Îlots de la mer d'Asse", 
    "superAreaId" : 0, 
    "containHouses" : true, 
    "containPaddocks" : true, 
    "bounds" : {
        "x" : 0, 
        "y" : -3, 
        "width" : 37, 
        "height" : 17
    }, 
    "worldmapId" : 0, 
    "hasWorldMap" : true
},
{ 
    "_id" : 52, 
    "nameId" : "Convention", 
    "superAreaId" : 4, 
    "containHouses" : true, 
    "containPaddocks" : true, 
    "bounds" : {
        "x" : 0, 
        "y" : 0, 
        "width" : 1, 
        "height" : 1
    }, 
    "worldmapId" : 0, 
    "hasWorldMap" : true
},
{ 
    "_id" : 53, 
    "nameId" : "Enutrosor", 
    "superAreaId" : 5, 
    "containHouses" : true, 
    "containPaddocks" : true, 
    "bounds" : {
        "x" : -10, 
        "y" : -10, 
        "width" : 13, 
        "height" : 11
    }, 
    "worldmapId" : 13, 
    "hasWorldMap" : true
},
{ 
    "_id" : 54, 
    "nameId" : "Srambad", 
    "superAreaId" : 5, 
    "containHouses" : true, 
    "containPaddocks" : true, 
    "bounds" : {
        "x" : -2, 
        "y" : -4, 
        "width" : 12, 
        "height" : 13
    }, 
    "worldmapId" : 14, 
    "hasWorldMap" : true
},
{ 
    "_id" : 55, 
    "nameId" : "Xélorium", 
    "superAreaId" : 5, 
    "containHouses" : true, 
    "containPaddocks" : true, 
    "bounds" : {
        "x" : 0, 
        "y" : -7, 
        "width" : 7, 
        "height" : 15
    }, 
    "worldmapId" : 15, 
    "hasWorldMap" : true
},
{ 
    "_id" : 56, 
    "nameId" : "Zone privée", 
    "superAreaId" : 0, 
    "containHouses" : true, 
    "containPaddocks" : true, 
    "bounds" : {
        "x" : 0, 
        "y" : 0, 
        "width" : 1, 
        "height" : 1
    }, 
    "worldmapId" : 0, 
    "hasWorldMap" : true
},
{ 
    "_id" : 57, 
    "nameId" : "Île de Rok", 
    "superAreaId" : 0, 
    "containHouses" : true, 
    "containPaddocks" : true, 
    "bounds" : {
        "x" : 0, 
        "y" : -21, 
        "width" : 39, 
        "height" : 22
    }, 
    "worldmapId" : 0, 
    "hasWorldMap" : true
},
{ 
    "_id" : 58, 
    "nameId" : "Havres-Sacs", 
    "superAreaId" : 0, 
    "containHouses" : true, 
    "containPaddocks" : true, 
    "bounds" : {
        "x" : 0, 
        "y" : 0, 
        "width" : 1, 
        "height" : 1
    }, 
    "worldmapId" : 0, 
    "hasWorldMap" : true
},
{ 
    "_id" : 59, 
    "nameId" : "Ecaflipus", 
    "superAreaId" : 5, 
    "containHouses" : true, 
    "containPaddocks" : true, 
    "bounds" : {
        "x" : -13, 
        "y" : -22, 
        "width" : 19, 
        "height" : 25
    }, 
    "worldmapId" : 0, 
    "hasWorldMap" : true
},
{ 
    "_id" : 60, 
    "nameId" : "Domaine des fils d'Ecaflip", 
    "superAreaId" : 3, 
    "containHouses" : true, 
    "containPaddocks" : true, 
    "bounds" : {
        "x" : 0, 
        "y" : 0, 
        "width" : 1, 
        "height" : 1
    }, 
    "worldmapId" : 0, 
    "hasWorldMap" : true
},
{ 
    "_id" : 61, 
    "nameId" : "Saharach", 
    "superAreaId" : 0, 
    "containHouses" : true, 
    "containPaddocks" : true, 
    "bounds" : {
        "x" : 0, 
        "y" : -65, 
        "width" : 20, 
        "height" : 66
    }, 
    "worldmapId" : 0, 
    "hasWorldMap" : true
}]